c48dbbb3b313c4ca40f10984933a3843ae99916c7c2a991e59b17f41a9cc
ad5166f41a0148c73ba99627dea7298c0f8450b7072dd601d7e44df06988
25b1c0b1eb3b06261d804fcfe11ca365cc0d29cee6e530ce55fec905bba9
8bb304adca10c989152954e5e717daaa0f1345d96a962d280419d907ed0c
6f1d4a95a1239f6ad99b03b94c5f6a3b65cb0155b454cea889027e658f1a
19efb50f85b4e77ea145f934d466792d75e237d0569c765c5ce48d023e98
a8f9374052fba6d997937a726ac09a01b45cc6f5f0b01af711d87bca29d8
7ac368c472179997f1f87e877afb8dde539e7adcbffd0577e69bcde5e51f
