5de7a6f1eaaff93a84f2eb67bb49699bb2f23189a7c6e7cad7e79e737abf
9c3e4891dc8345ae5546f6f7fa2401c574ced534233fef2e7bc724414755
4e855690913920393df9f4a51ea09b0bc0c4df5738a833523a6706698aac
0449714f1b50be56682ba9f3473b4d6b6d7363350344df5e8af4a0df3f4a
25e58ab46df60f3b8d246756a32edc1ed332d545c119c456fefa7e3f7e49
d13690ec254424b5b3caf47c3f431d9f70c1dd3c9221896483d154694b27
c24febf990133f6baed90514b4120ec3d1ded8e6d89ce2cfa5560e937a40
91719e916b3e01ebdb6b95dc82e505f1a5f24ce13325a0e8ce90d38c5cc0
