67d358b2d791d724f4f7b84e2b21c8a1a0deec9dd999d959ae3f9d153d06
369e2a399f155220695f1b3a54f27df772ff280547a01aac27ace41159ae
5777cba16c3c4516699db81c2ad9c6d8954ab16ed101cf7c8794b0c60707
317dc3410d3ed45df01a9993bab36a51140fca8121799609d7c8f8a6311a
9fbdfe70487114096821a60bb8351dcbd5399d184a029742ef8c43161b1c
c49b774099a05b088c274e0fb692452155de0367ecf1320d999e81ce44dd
5ee63d04037b8b27488d66bf4cb747b7f776d26b716bafa74499b69a3c8b
07c3fc4fab57b3c790cb165b0ca6c9ae60e326a1179d9f7daba964f35b97
