320adaecfba4fe8ac1d0fdbb60b4db5b7cac684d45d11f26d824247c83c4
a5f748575bf513dd974ff04ce5530f649dd94f32ceb89860d18c3910e71a
84adca3075e61ebe659c82e426a8d1c29621f9e0e1695d20b28bd23b3fa5
2debcb873252c529741829f1a63244b349bde7280831473fb3a561f90d67
0e86025c80816f777c6147d6cf08945b664c8b1a26d8a335775419a6d8eb
d6cff1eccc3bcbb132b48a612a3b0dc6f9292a6af784db6c8388a8b8898c
800570187b60071c03a5b45486aaf1215093389d19b6ae8e1341e32797a0
0a86523e83273e57ea4f56b397a98e66b5207f4405c7dbaadbca4045181f
