f9c894447205dfa817f3b66018993ee6346004961c77ce79c445602924e0
b53a2eb78b304290544bd79d9d773c7f52874ad098ddbf4cc1d94c857ade
c888a6be7716ff52a9bbe9f6e966a9574fbd7e55fb0b504b07089d84078c
f10000006f010000504b0304140008080800f9995b530000000000000000
00000000130000005b436f6e74656e745f54797065735d2e786d6cbd94cb
4ec3301045f7fd8ac85b94b8b0400825e982c712ba086b64ec496a881fb2
ddd2fe3de334aa50159a0285653c73ef99b94e92cfd6aa4d56e0bc34ba20
e7d99424a0b91152370579aaeed32b322b2779b5b1e013ecd5be208b10ec
