000000000000002d040000776f72642f5f72656c732f646f63756d656e74
2e786d6c2e72656c73504b01021400140008080800f9995b53dd9876192d
0a0000a03a000011000000000000000000000000003c050000776f72642f
646f63756d656e742e786d6c504b01021400140008080800f9995b53def9
47e490020000410900000f00000000000000000000000000a80f0000776f
72642f7374796c65732e786d6c504b01021400140008080800f9995b53c1
c7d9081d0100005503000012000000000000000000000000007512000077
6f72642f666f6e745461626c652e786d6c504b01021400140008080800f9
