4de331dc882f0df6a7f3e3189670b071aa2cb3796fbdfec94f8fbfbc443f
0f1ac47b51838f5233d2d260856787fb32209f81793800a7e3c080b5f137
2c32dd903a710554c05067b427a8a286e92c96761b5637fd955243174374
47b7ea48add75ea76aa575004b0043b1bf516a428e4f0deab4b9d65f2af5
635de621f5ff9cd4d708e24fa80630c78718eabb07f4b7c88a211ef3e97c
509c2f2706aa33903560e560124b65f01c8c1790a270c185195a2b970a90
91793ef75e81884a6234a70b0ee39378d256e13a53495a0cc08411c3508a
cc03a41650728980f9b2f66285f17ed9c04e15488d1fd61e92670401284b
