f79788e44fc24c9e73d3ae9feb75109cce1fc4c052eeea55756ca890d935
4616f5d998b9c280658095cb4c0b86fda3032f9521faea59fceccd80534d
9859c60633425ccdddad8a1fc805fa1665dcdd86fc08a5fb56b92b9e0231
1258edb7eff11b3b7b260f3bae54ea13b1d35329dfcb38c1638025902ca4
ef3b5c112055cedff1e69beedb9ed600e95ddfd9898d8d22463de57e6fa9
d7170c54bd1d02394083bf2cb5e7d29c67b8b9365f7677f04671ebfab6ff
8c12bf065c767d94ddcbcddceab3901888e6364f9a199c5b3bdcf94c8d8b
4305dc0aee19e752673d8af96e4fc0ab8b311fee19883f3971fb33f64fda
