b840c2f5faa2ff7b44e333479dda3c3a0805db5bba63303bc03fc085f0f8
15c34b0dbf8be1fd4aa1f8acfc369c79a3ecc5f7cc0b3f594a340032f24c
98835bddf402c868a783a644fa21104337688dd655e9b60ead0e495c5233
2e821b4db6127f73c73b204314f7957e301c633b8038de663187f98f1f48
867627db1f60700bdc31aa1b50a7cc9ee990f5cd217d87dcdd1cd277c8fd
cd217d873cdc1cd277c8b73787f41df2fae690be431e6f0ee93b647373c8
60305bfd1f79a44f0add54714524dc09aa9cee1bf760d312909bd473ce95
fe3de6b1c4cde2f673da33660dd1b3b85df41b65eb29f7381eeeb103bc7e
