cb0676d0b80a90d20ca1a6dc92462650e286504bda72623b4246e9a33abb
65dfb5ce8260dafc15774977959aab105ce460416566b6133800d4dcc810
12cee5c6fca22aa0dd2c5b67ea3eaee8d59ceb324a4c32d1f110cb0b6ca2
31b39f0e16d393efb46a8337aa9a0fb07c9f2bdf75d5c03ed1f2e7c66bed
edc961770bc0def28dee1c5d3bc7c86cb7407fc6ea4ba8bbd7607a361c68
e5b4953b9b270c2ab0f722e44d3dd351e2ba5ebb3f24f9035894e90ef408
a9abf8e2509a50eb12f3622d95c40adadba1c73814faaa27095cf6675785
006209ed9590e51cc9c943720c85ea9d2a30566447c25863de7bc523831d
