34543d29814b37e71d0ee1f9bb6f82c8aa20dff21343be069be77379c7bb
e7b772ffd9f86a31f3d57e10e3453dfff1741af761d13f95da07c233f95e
7ae4d69b71e0cfc2c7ede8dd126fe9753915969127c95e70bbb1d9788ce2
4965b279a97a4e4f1dc0c80c9498dd7092b7cc89619f2da68d8590a548d8
58a3cb740752e7a9e940a93b9c19bb26c03b92ef7a97c098612c5875ce1d
d2d95ac14a62d7f3e97598dc24915717f6565726303328c6c66d383866ae
c353a14a3d50ea1b8525dd3e5cf172511ff3d6947815799f77d4e84fa54e
da5943d2e7b99e64b8c783d760a0b733383c0161d3d9cf81008c96cf7d19
