93cda5c5f7440d4f8a1aac46e28ccb1be5e5a9b268ed518ed5babd7d3cbf
e9ed21bf4f1572e7ea55691e09e1d3f5fdd3bdfa0edf4e151c6bee28612e
8ad313e6a238ca16b9393d88bc78bebbed9b8db227cb06f23ccc83f274c3
b1efd554a8c8c443a6dbed04b8a5e95b4802487f099768dbfae88407def8
1a38f3a279b13eb9e1fc65466bc6f5b5f906a563c867271c85df348f4228
81b0da11ca4d19ae555d9c86e066d5b8fbf04dbb8ff1bbf83a7e4f452c7d
f5481dfe9c7dc04bfee7c3fb79b739353bee3716975bdd9d0c8461f59161
74a07bc4b6575978bd10d17f335a70b1b81a394038d565d383125c6055ca
