5cad0a95d7eeea4d2887e9b108df49d3b78bf71ab5c539213e222ce542a0
678c6b1b5defdf2e7e909d7197f71786a70b7174386d586d558b0580786b
1ad91eade8b4cf119c9db49af33b3b5d39d9ba9374c3ba1354738376ee7b
54fb557d92ffec9f566bb6e61495f6ceabe66b3a658f05393e97bd87d7bd
ce577cce2c2d36a6d84f5fa8270b6eccbd532b674a08935bb5da58256f91
90def60a29c62b9cfadc83834e921e3e0c2715da75b5dcaf4cefd1edd4aa
062680f121d9f975f0db755df7ce8760913ddf75d8cde895ef3b051fbffb
905f0347faee73dee96d6f43a41f777e177670845761df4750d742da6271
