62b961d4c6dc0a007f2bfa0e92b59f05efda0727808500670944b4054b79
76fbff14a07529e24599d8c8fc96824c7ea0b633a6305bbf145b2b8b1e08
b287f6d419c93329c6abbd122f7c859eb6b1104712e908a76a742063153b
953f60ae366389157aec528938a1db4a6e34be7a86fa914efe18d06242ac
52c7bc0d69009e691a526dd4284524ef313b594736193a4d1048d54f1038
50ef26e90c47cc678ab016fe4972e79dcc7d3d25ee83808917ce041c2669
c0c92541892658e6cfb9e760a68894931795fd71e6b47ba42407ca05921c
53985d0245202f896d92dff86c3e964303cd61564975e1624f6b0976899a
