65ed1ec86da9051d4a6e493ffc187501edf587394da3cd80e8622a83fbb9
806cade453b4b62d81420eb4bf8a535d90ca8415319c651014a3a8e9168c
96b4b56d6639d44d95aac632d4dd065c004e81205faf179fe728a3d0352a
2d0466be87a42be67e45d5e0e9ae926f69ff9749fb30f188ef76c36c14a4
c4b442fa9aed53f23c65eb461643888d6a8882544e712d83e6ffd2aab3e3
7fd098190973cede91765ce83ad2490ae711641c03e1ba02be543012fc30
100e2b8372ff48488d14df1355e8db99aed86b82438136eb7f81facbb0c8
a2c9aee3c3cbb004c7eae2eb4af19cdf7f09ce821e30c90e16da172534ae
