d59b6d0764348628e74591ffa370dd562c79920e820992a0c320a392ae47
6a9c4a1d52947febe564baee16013ed8056d1d9e67ae6fe50cd22e510331
575f4478eed19bf108ac745a1b857241984cf5a6b8b5a08dc53297fbe116
40276bcb1ee2b162e26eaedb256063a08c438f1583beb7464d81c4891a3e
dd015fb6ce638ec1c49a0c5f8eb469939fb0e15d3ce80e89786e9d27c3d5
92b04e3e7fe3bed10f8873d54b96ae74608431ea1dfe7863623534608c79
6ec3d3c1fb63ea0e04c60611e725efa9bd23311db428c6f375f1e360f1f9
e1f324c4710a9fcdb530b8144b05ea880f8cc9c110f861546cc5bfd7a4fe
