9312dd558e180e287e93210e6732362b01fa0e6f60c632e163c668bdd904
99c11c583dc53225d15dc98dc2f2fc438b4ba656fbc4df0e9507666c4880
e36f7ba4f93624bbd47556af5fd4fe6e94e82122883698540adfdc20c6a7
e50699b1a7a63d7802f18f1b5cf9acb802c1e7924c3b36986ea63e1e72ef
06bc6d2b4f59d01efe1ffd706aedf2a5ac6b91f88bc0291337eb4b0cb6fa
f1366105e5bf0cdd80ff8b21981fecb720f18289df6aee59acc1f45f088d
df81a5b3d5173bce7ba33d2c916ea864b2e7109bf43c4e98282c03ca0d6c
085e7f96010349ca23cd7960d5d70fd4c4d9689f28aa69ecb840303f8144
