2e1d6d7098170f32e800ceb09ce60e9cefea63ac1c76fce9308476f9ae80
5a1bece4ac384e4ea76d67e4a18d7bdbebfeac98edb57677c2e557ba3e9f
afed3761ffba029631df9e1babdddf5ef7167d9854465263b4800104d5d4
89370d434725eed60a1916b4218159658022d0e30e20ab186d20578c7e5c
7812c96ea3decf4efe5541914d56d13b8fb5014ae8532ea10ca87409b102
9910602c6289d8e131126050b4944f8efaa8f88028b1c68dd82805584192
e19857c6dd70563f2a6096f1580084820b80cf4a77b6210c23746a2ec332
bd0f83bbc470e26bc5e702b3c0404eb7b30efb9703520bf5b589b16ee7c0
