61c063487acade712104afaee25e1080fe8ea956f014cb326225ea628e28
e008ef66b1158c797a0292092a813dad0e90ba0cb655b054146c775a6149
89c85206268bf70d4c60bbc2369943eb9ceccb0223cd0213186e062f417c
9d17c386e3ee362bfec61f1649e406a9f50fcdc6f7e9a5af6a37fee1d2f3
38863736b133589aaf242d9f80f973dd9fbea63dcf752665be89b95e1e46
c4b8e410bd8ee21b3f708d081a692d725f08678e7b5c4ca004f98dbe8824
e114a44b9573e230b31b3825b8e414bd0b09e6ae8490e3ee17f8e6124bf7
b11f203550512a60b3e0205a4062d262ab43889ccbb9e46444f6faf11a79
