c08e81e5bcefd384051fbd42a34cc581aa5a3e74364a66fb84907fd4b2d7
b4e538a337eb39658d397abb0468ec7762ba99ca698fea8d055730efad1f
730a69147008d14bc736ee1b57d2a1520faf33890c9a51198dec89eaed4a
d95810c6f7bd7b94929d141a7b298ccbc1d6613cba51b3d9de3d369f14cd
35fc781c32d7dbb6085f61b2f32dc09e1f79f3b8536ce7933e0bc60e15b9
7baf921e31761e2f338e70e77e1c701c0a22061edb2687b4709033065bd5
3b93c2de8d22fc56683bfca6d603f817ae669f867e77a44a0f73e9b39081
1d764b27ad8e8d852bbb359d0ad7c4b8e7614f2cf08dec1cab5bfd410ccd
