656e74206c6574206d650a64656665722074686973207375626a6563742c
20616e6420736179206120776f7264206f722074776f2061626f75742074
686520636c696d61746520616e6420686f757365730a696e206f75722063
6f756e7472792e0a0a
