686573652028756e6c65737320696e6465656420796f75722073756e2073
68696e6573206272696768740a75706f6e207468656d2072657665616c69
6e67207468652070726f6a656374696f6e7320616e64207265746972656d
656e7473206279206d65616e73206f66206c696768740a616e6420736861
6465292c206e6f7468696e67206275742061206772657920756e62726f6b
656e206c696e652075706f6e207468652077617465722e0a0a57656c6c2c
2074686174206973206a757374207768617420776520736565207768656e
206f6e65206f66206f757220747269616e67756c6172206f72206f746865
