6572792073696d696c61720a657870657269656e636573207768696c6520
7468657920747261766572736520796f7572207365617320616e64206469
736365726e20736f6d652064697374616e740a69736c616e64206f722063
6f617374206c79696e67206f6e2074686520686f72697a6f6e2e20205468
65206661722d6f6666206c616e64206d6179206861766520626179732c0a
666f72656c616e64732c20616e676c657320696e20616e64206f75742074
6f20616e79206e756d62657220616e6420657874656e743b207965742061
7420610a64697374616e636520796f7520736565206e6f6e65206f662074
