20746865736520646973616476616e7461676f75732063697263756d7374
616e636573207765206172650a61626c6520746f2064697374696e677569
7368206f757220667269656e64732066726f6d206f6e6520616e6f746865
723a206275742074686520616e7377657220746f0a746869732076657279
206e61747572616c207175657374696f6e2077696c6c206265206d6f7265
206669746c7920616e6420656173696c7920676976656e207768656e2049
0a636f6d6520746f2064657363726962652074686520696e686162697461
6e7473206f6620466c61746c616e642e2020466f72207468652070726573
