70656e6e792077696c6c207468656e20686176652063656173656420746f
20617070656172206f76616c20617420616c6c2c0a616e642077696c6c20
68617665206265636f6d652c20736f2066617220617320796f752063616e
207365652c2061207374726169676874206c696e652e0a0a546865207361
6d65207468696e6720776f756c642068617070656e20696620796f752077
65726520746f20747265617420696e207468652073616d65207761792061
0a547269616e676c652c206f722061205371756172652c206f7220616e79
206f746865722066696775726520637574206f75742066726f6d20706173
