74686f7567682049207761732068756e6772792c2049206461726564206e
6f7420656174206d7920736c6963652e20492066656c7420746861742049
206d757374206861766520736f6d657468696e6720696e20726573657276
6520666f72206d7920647265616466756c206163717561696e74616e6365
2c20616e642068697320616c6c7920746865207374696c6c206d6f726520
647265616466756c20796f756e67206d616e2e2049206b6e6577204d7273
2e204a6f65e280997320686f7573656b656570696e6720746f206265206f
662074686520737472696374657374206b696e642c20616e642074686174
