65722ce2809d2073616964206d79207369737465722c206f7574206f6620
6272656174682c20e2809c796f752073746172696e672067726561742073
7475636b207069672ee2809d0a0a4a6f65206c6f6f6b6564206174206865
7220696e20612068656c706c657373207761792c207468656e20746f6f6b
20612068656c706c65737320626974652c20616e64206c6f6f6b65642061
74206d6520616761696e2e0a0ae2809c596f75206b6e6f772c205069702c
e2809d2073616964204a6f652c20736f6c656d6e6c792c20776974682068
6973206c617374206269746520696e2068697320636865656b2c20616e64
