652c207374616d70696e672068657220666f6f742e20e2809c54656c6c20
6d65206469726563746c79207768617420796f75e280997665206265656e
20646f696e6720746f2077656172206d6520617761792077697468206672
657420616e642066726967687420616e6420776f727269742c206f722049
e2809964206861766520796f75206f7574206f66207468617420636f726e
657220696620796f752077617320666966747920506970732c20616e6420
68652077617320666976652068756e647265642047617267657279732ee2
809d0a0ae2809c492068617665206f6e6c79206265656e20746f20746865
