206d79206c617263656e6f75732072657365617263686573206d69676874
2066696e64206e6f7468696e6720617661696c61626c6520696e20746865
20736166652e205468657265666f72652049207265736f6c76656420746f
20707574206d792068756e6b206f6620627265616420616e642062757474
657220646f776e20746865206c6567206f66206d792074726f7573657273
2e0a0a546865206566666f7274206f66207265736f6c7574696f6e206e65
6365737361727920746f2074686520616368696576656d656e74206f6620
7468697320707572706f7365204920666f756e6420746f20626520717569
