756c64207468696e6b2068696d73656c6620616363726564697465642074
6f206d7920686561727420616e64206c6976657220746f2d6e696768742c
20696e7374656164206f6620746f2d6d6f72726f77212049662065766572
20616e79626f6479e280997320686169722073746f6f64206f6e20656e64
207769746820746572726f722c206d696e65206d75737420686176652064
6f6e6520736f207468656e2e204275742c20706572686170732c206e6f62
6f6479e28099732065766572206469643f0a0a4974207761732043687269
73746d6173204576652c20616e6420492068616420746f20737469722074
