722c20616e64207368652052616d2d7061676564206f75742e2054686174
e2809973207768617420736865206469642ce2809d2073616964204a6f65
2c20736c6f776c7920636c656172696e6720746865206669726520626574
7765656e20746865206c6f77657220626172732077697468207468652070
6f6b65722c20616e64206c6f6f6b696e672061742069743b20e2809c7368
652052616d2d7061676564206f75742c205069702ee2809d0a0ae2809c48
617320736865206265656e20676f6e65206c6f6e672c204a6f653fe2809d
204920616c7761797320747265617465642068696d2061732061206c6172
