6520616e642049206265696e672066656c6c6f772d737566666572657273
2c20616e6420686176696e6720636f6e666964656e636573206173207375
63682c204a6f6520696d706172746564206120636f6e666964656e636520
746f206d652c20746865206d6f6d656e7420492072616973656420746865
206c61746368206f662074686520646f6f7220616e642070656570656420
696e2061742068696d206f70706f7369746520746f2069742c2073697474
696e6720696e20746865206368696d6e657920636f726e65722e0a0ae280
9c4d72732e204a6f6520686173206265656e206f7574206120646f7a656e
