7468616e20757375616c2c20706f6e646572696e67206f76657220697420
6120676f6f64206465616c2c20616e6420616674657220616c6c2067756c
70656420697420646f776e206c696b6520612070696c6c2e204865207761
732061626f757420746f2074616b6520616e6f7468657220626974652c20
616e6420686164206a75737420676f74206869732068656164206f6e206f
6e65207369646520666f72206120676f6f64207075726368617365206f6e
2069742c207768656e20686973206579652066656c6c206f6e206d652c20
616e64206865207361772074686174206d7920627265616420616e642062
