2074696d65732c206c6f6f6b696e6720666f7220796f752c205069702e20
416e6420736865e2809973206f7574206e6f772c206d616b696e67206974
20612062616b6572e280997320646f7a656e2ee2809d0a0ae2809c497320
7368653fe2809d0a0ae2809c5965732c205069702ce2809d207361696420
4a6f653b20e2809c616e642077686174e280997320776f7273652c207368
65e280997320676f74205469636b6c65722077697468206865722ee2809d
0a0a41742074686973206469736d616c20696e74656c6c6967656e63652c
2049207477697374656420746865206f6e6c7920627574746f6e206f6e20
